%YAML 1.1
%TAG !u! tag:unity3d.com,2011:
--- !u!1045 &1
EditorBuildSettings:
  m_ObjectHideFlags: 0
  serializedVersion: 2
  m_Scenes:
  - enabled: 1
    path: Assets/Scenes/Main.unity
    guid: ef66a1059e9c1974289ca1f95bc08ad6
  - enabled: 1
    path: Assets/Scenes/Loading.unity
    guid: a939ba57aae23e44e9d900174c06ac44
  - enabled: 1
    path: Assets/Scenes/Splash.unity
    guid: 0e84bde0d4637514ba2e9034d0fc4778
  - enabled: 1
    path: Assets/Scenes/Welcome.unity
    guid: 1cd0edd24b6fa3647a9aae58393a77bb
  - enabled: 1
    path: Assets/Scenes/Gameplay.unity
    guid: 702f169baa9bff44aafef6c5b578c831
  - enabled: 1
    path: Assets/Scenes/Credits.unity
    guid: 0b388832d39bb0642bd42e9b963967f6
  - enabled: 1
    path: Assets/Scenes/GameOver.unity
    guid: abf2730db5a80214e90ed93fdd46c015
  m_configObjects: {}
